^E:\AIE_LEARNING\COMPLEX_SYSTEMS\ASSIGNMENT\DEPENDENCIES\IMGUI\IMGUI.CPP
/c /ZI /nologo /W3 /WX- /Od /Oy- /D WIN32 /D _DEBUG /D _LIB /D _UNICODE /D UNICODE /Gm /EHsc /RTC1 /MDd /GS /fp:precise /Zc:wchar_t /Zc:forScope /Zc:inline /Fo"E:\AIE_LEARNING\COMPLEX_SYSTEMS\ASSIGNMENT\TEMP\BOOTSTRAP\DEBUG\\" /Fd"E:\AIE_LEARNING\COMPLEX_SYSTEMS\ASSIGNMENT\TEMP\BOOTSTRAP\DEBUG\BOOTSTRAP.PDB" /Gd /TP /analyze- E:\AIE_LEARNING\COMPLEX_SYSTEMS\ASSIGNMENT\DEPENDENCIES\IMGUI\IMGUI.CPP
^E:\AIE_LEARNING\COMPLEX_SYSTEMS\ASSIGNMENT\DEPENDENCIES\IMGUI\IMGUI_DRAW.CPP
/c /ZI /nologo /W3 /WX- /Od /Oy- /D WIN32 /D _DEBUG /D _LIB /D _UNICODE /D UNICODE /Gm /EHsc /RTC1 /MDd /GS /fp:precise /Zc:wchar_t /Zc:forScope /Zc:inline /Fo"E:\AIE_LEARNING\COMPLEX_SYSTEMS\ASSIGNMENT\TEMP\BOOTSTRAP\DEBUG\\" /Fd"E:\AIE_LEARNING\COMPLEX_SYSTEMS\ASSIGNMENT\TEMP\BOOTSTRAP\DEBUG\BOOTSTRAP.PDB" /Gd /TP /analyze- E:\AIE_LEARNING\COMPLEX_SYSTEMS\ASSIGNMENT\DEPENDENCIES\IMGUI\IMGUI_DRAW.CPP
^E:\AIE_LEARNING\COMPLEX_SYSTEMS\ASSIGNMENT\BOOTSTRAP\APPLICATION.CPP
/c /ZI /nologo /W3 /WX- /Od /Oy- /D WIN32 /D _DEBUG /D _LIB /D _UNICODE /D UNICODE /Gm /EHsc /RTC1 /MDd /GS /fp:precise /Zc:wchar_t /Zc:forScope /Zc:inline /Fo"E:\AIE_LEARNING\COMPLEX_SYSTEMS\ASSIGNMENT\TEMP\BOOTSTRAP\DEBUG\\" /Fd"E:\AIE_LEARNING\COMPLEX_SYSTEMS\ASSIGNMENT\TEMP\BOOTSTRAP\DEBUG\BOOTSTRAP.PDB" /Gd /TP /analyze- E:\AIE_LEARNING\COMPLEX_SYSTEMS\ASSIGNMENT\BOOTSTRAP\APPLICATION.CPP
^E:\AIE_LEARNING\COMPLEX_SYSTEMS\ASSIGNMENT\BOOTSTRAP\AUDIO.CPP
/c /ZI /nologo /W3 /WX- /Od /Oy- /D WIN32 /D _DEBUG /D _LIB /D _UNICODE /D UNICODE /Gm /EHsc /RTC1 /MDd /GS /fp:precise /Zc:wchar_t /Zc:forScope /Zc:inline /Fo"E:\AIE_LEARNING\COMPLEX_SYSTEMS\ASSIGNMENT\TEMP\BOOTSTRAP\DEBUG\\" /Fd"E:\AIE_LEARNING\COMPLEX_SYSTEMS\ASSIGNMENT\TEMP\BOOTSTRAP\DEBUG\BOOTSTRAP.PDB" /Gd /TP /analyze- E:\AIE_LEARNING\COMPLEX_SYSTEMS\ASSIGNMENT\BOOTSTRAP\AUDIO.CPP
^E:\AIE_LEARNING\COMPLEX_SYSTEMS\ASSIGNMENT\BOOTSTRAP\FONT.CPP
/c /ZI /nologo /W3 /WX- /Od /Oy- /D WIN32 /D _DEBUG /D _LIB /D _UNICODE /D UNICODE /Gm /EHsc /RTC1 /MDd /GS /fp:precise /Zc:wchar_t /Zc:forScope /Zc:inline /Fo"E:\AIE_LEARNING\COMPLEX_SYSTEMS\ASSIGNMENT\TEMP\BOOTSTRAP\DEBUG\\" /Fd"E:\AIE_LEARNING\COMPLEX_SYSTEMS\ASSIGNMENT\TEMP\BOOTSTRAP\DEBUG\BOOTSTRAP.PDB" /Gd /TP /analyze- E:\AIE_LEARNING\COMPLEX_SYSTEMS\ASSIGNMENT\BOOTSTRAP\FONT.CPP
^E:\AIE_LEARNING\COMPLEX_SYSTEMS\ASSIGNMENT\BOOTSTRAP\GIZMOS.CPP
/c /ZI /nologo /W3 /WX- /Od /Oy- /D WIN32 /D _DEBUG /D _LIB /D _UNICODE /D UNICODE /Gm /EHsc /RTC1 /MDd /GS /fp:precise /Zc:wchar_t /Zc:forScope /Zc:inline /Fo"E:\AIE_LEARNING\COMPLEX_SYSTEMS\ASSIGNMENT\TEMP\BOOTSTRAP\DEBUG\\" /Fd"E:\AIE_LEARNING\COMPLEX_SYSTEMS\ASSIGNMENT\TEMP\BOOTSTRAP\DEBUG\BOOTSTRAP.PDB" /Gd /TP /analyze- E:\AIE_LEARNING\COMPLEX_SYSTEMS\ASSIGNMENT\BOOTSTRAP\GIZMOS.CPP
^E:\AIE_LEARNING\COMPLEX_SYSTEMS\ASSIGNMENT\BOOTSTRAP\IMGUI_GLFW3.CPP
/c /ZI /nologo /W3 /WX- /Od /Oy- /D WIN32 /D _DEBUG /D _LIB /D _UNICODE /D UNICODE /Gm /EHsc /RTC1 /MDd /GS /fp:precise /Zc:wchar_t /Zc:forScope /Zc:inline /Fo"E:\AIE_LEARNING\COMPLEX_SYSTEMS\ASSIGNMENT\TEMP\BOOTSTRAP\DEBUG\\" /Fd"E:\AIE_LEARNING\COMPLEX_SYSTEMS\ASSIGNMENT\TEMP\BOOTSTRAP\DEBUG\BOOTSTRAP.PDB" /Gd /TP /analyze- E:\AIE_LEARNING\COMPLEX_SYSTEMS\ASSIGNMENT\BOOTSTRAP\IMGUI_GLFW3.CPP
^E:\AIE_LEARNING\COMPLEX_SYSTEMS\ASSIGNMENT\BOOTSTRAP\INPUT.CPP
/c /ZI /nologo /W3 /WX- /Od /Oy- /D WIN32 /D _DEBUG /D _LIB /D _UNICODE /D UNICODE /Gm /EHsc /RTC1 /MDd /GS /fp:precise /Zc:wchar_t /Zc:forScope /Zc:inline /Fo"E:\AIE_LEARNING\COMPLEX_SYSTEMS\ASSIGNMENT\TEMP\BOOTSTRAP\DEBUG\\" /Fd"E:\AIE_LEARNING\COMPLEX_SYSTEMS\ASSIGNMENT\TEMP\BOOTSTRAP\DEBUG\BOOTSTRAP.PDB" /Gd /TP /analyze- E:\AIE_LEARNING\COMPLEX_SYSTEMS\ASSIGNMENT\BOOTSTRAP\INPUT.CPP
^E:\AIE_LEARNING\COMPLEX_SYSTEMS\ASSIGNMENT\BOOTSTRAP\RENDERER2D.CPP
/c /ZI /nologo /W3 /WX- /Od /Oy- /D WIN32 /D _DEBUG /D _LIB /D _UNICODE /D UNICODE /Gm /EHsc /RTC1 /MDd /GS /fp:precise /Zc:wchar_t /Zc:forScope /Zc:inline /Fo"E:\AIE_LEARNING\COMPLEX_SYSTEMS\ASSIGNMENT\TEMP\BOOTSTRAP\DEBUG\\" /Fd"E:\AIE_LEARNING\COMPLEX_SYSTEMS\ASSIGNMENT\TEMP\BOOTSTRAP\DEBUG\BOOTSTRAP.PDB" /Gd /TP /analyze- E:\AIE_LEARNING\COMPLEX_SYSTEMS\ASSIGNMENT\BOOTSTRAP\RENDERER2D.CPP
^E:\AIE_LEARNING\COMPLEX_SYSTEMS\ASSIGNMENT\BOOTSTRAP\SOUNDMANAGER.CPP
/c /ZI /nologo /W3 /WX- /Od /Oy- /D WIN32 /D _DEBUG /D _LIB /D _UNICODE /D UNICODE /Gm /EHsc /RTC1 /MDd /GS /fp:precise /Zc:wchar_t /Zc:forScope /Zc:inline /Fo"E:\AIE_LEARNING\COMPLEX_SYSTEMS\ASSIGNMENT\TEMP\BOOTSTRAP\DEBUG\\" /Fd"E:\AIE_LEARNING\COMPLEX_SYSTEMS\ASSIGNMENT\TEMP\BOOTSTRAP\DEBUG\BOOTSTRAP.PDB" /Gd /TP /analyze- E:\AIE_LEARNING\COMPLEX_SYSTEMS\ASSIGNMENT\BOOTSTRAP\SOUNDMANAGER.CPP
^E:\AIE_LEARNING\COMPLEX_SYSTEMS\ASSIGNMENT\BOOTSTRAP\TEXTURE.CPP
/c /ZI /nologo /W3 /WX- /Od /Oy- /D WIN32 /D _DEBUG /D _LIB /D _UNICODE /D UNICODE /Gm /EHsc /RTC1 /MDd /GS /fp:precise /Zc:wchar_t /Zc:forScope /Zc:inline /Fo"E:\AIE_LEARNING\COMPLEX_SYSTEMS\ASSIGNMENT\TEMP\BOOTSTRAP\DEBUG\\" /Fd"E:\AIE_LEARNING\COMPLEX_SYSTEMS\ASSIGNMENT\TEMP\BOOTSTRAP\DEBUG\BOOTSTRAP.PDB" /Gd /TP /analyze- E:\AIE_LEARNING\COMPLEX_SYSTEMS\ASSIGNMENT\BOOTSTRAP\TEXTURE.CPP
^E:\AIE_LEARNING\COMPLEX_SYSTEMS\ASSIGNMENT\BOOTSTRAP\GL_CORE_4_4.C
/c /ZI /nologo /W3 /WX- /Od /Oy- /D WIN32 /D _DEBUG /D _LIB /D _UNICODE /D UNICODE /Gm /EHsc /RTC1 /MDd /GS /fp:precise /Zc:wchar_t /Zc:forScope /Zc:inline /Fo"E:\AIE_LEARNING\COMPLEX_SYSTEMS\ASSIGNMENT\TEMP\BOOTSTRAP\DEBUG\\" /Fd"E:\AIE_LEARNING\COMPLEX_SYSTEMS\ASSIGNMENT\TEMP\BOOTSTRAP\DEBUG\BOOTSTRAP.PDB" /Gd /TC /analyze- E:\AIE_LEARNING\COMPLEX_SYSTEMS\ASSIGNMENT\BOOTSTRAP\GL_CORE_4_4.C
