^E:\AIE_LEARNING\COMPLEX_SYSTEMS\ASSIGNMENT\BOOTSTRAP\APPLICATION.CPP|E:\AIE_LEARNING\COMPLEX_SYSTEMS\ASSIGNMENT\BOOTSTRAP\AUDIO.CPP|E:\AIE_LEARNING\COMPLEX_SYSTEMS\ASSIGNMENT\BOOTSTRAP\FONT.CPP|E:\AIE_LEARNING\COMPLEX_SYSTEMS\ASSIGNMENT\BOOTSTRAP\GIZMOS.CPP|E:\AIE_LEARNING\COMPLEX_SYSTEMS\ASSIGNMENT\BOOTSTRAP\IMGUI_GLFW3.CPP|E:\AIE_LEARNING\COMPLEX_SYSTEMS\ASSIGNMENT\BOOTSTRAP\INPUT.CPP|E:\AIE_LEARNING\COMPLEX_SYSTEMS\ASSIGNMENT\BOOTSTRAP\RENDERER2D.CPP|E:\AIE_LEARNING\COMPLEX_SYSTEMS\ASSIGNMENT\BOOTSTRAP\SOUNDMANAGER.CPP|E:\AIE_LEARNING\COMPLEX_SYSTEMS\ASSIGNMENT\BOOTSTRAP\TEXTURE.CPP|E:\AIE_LEARNING\COMPLEX_SYSTEMS\ASSIGNMENT\DEPENDENCIES\IMGUI\IMGUI.CPP|E:\AIE_LEARNING\COMPLEX_SYSTEMS\ASSIGNMENT\DEPENDENCIES\IMGUI\IMGUI_DRAW.CPP
E:\AIE_LEARNING\COMPLEX_SYSTEMS\ASSIGNMENT\TEMP\BOOTSTRAP\DEBUG\BOOTSTRAP.PDB
E:\AIE_LEARNING\COMPLEX_SYSTEMS\ASSIGNMENT\TEMP\BOOTSTRAP\DEBUG\BOOTSTRAP.IDB
E:\AIE_LEARNING\COMPLEX_SYSTEMS\ASSIGNMENT\TEMP\BOOTSTRAP\DEBUG\IMGUI.OBJ
E:\AIE_LEARNING\COMPLEX_SYSTEMS\ASSIGNMENT\TEMP\BOOTSTRAP\DEBUG\IMGUI_DRAW.OBJ
E:\AIE_LEARNING\COMPLEX_SYSTEMS\ASSIGNMENT\TEMP\BOOTSTRAP\DEBUG\APPLICATION.OBJ
E:\AIE_LEARNING\COMPLEX_SYSTEMS\ASSIGNMENT\TEMP\BOOTSTRAP\DEBUG\AUDIO.OBJ
E:\AIE_LEARNING\COMPLEX_SYSTEMS\ASSIGNMENT\TEMP\BOOTSTRAP\DEBUG\FONT.OBJ
E:\AIE_LEARNING\COMPLEX_SYSTEMS\ASSIGNMENT\TEMP\BOOTSTRAP\DEBUG\GIZMOS.OBJ
E:\AIE_LEARNING\COMPLEX_SYSTEMS\ASSIGNMENT\TEMP\BOOTSTRAP\DEBUG\IMGUI_GLFW3.OBJ
E:\AIE_LEARNING\COMPLEX_SYSTEMS\ASSIGNMENT\TEMP\BOOTSTRAP\DEBUG\INPUT.OBJ
E:\AIE_LEARNING\COMPLEX_SYSTEMS\ASSIGNMENT\TEMP\BOOTSTRAP\DEBUG\RENDERER2D.OBJ
E:\AIE_LEARNING\COMPLEX_SYSTEMS\ASSIGNMENT\TEMP\BOOTSTRAP\DEBUG\SOUNDMANAGER.OBJ
E:\AIE_LEARNING\COMPLEX_SYSTEMS\ASSIGNMENT\TEMP\BOOTSTRAP\DEBUG\TEXTURE.OBJ
^E:\AIE_LEARNING\COMPLEX_SYSTEMS\ASSIGNMENT\DEPENDENCIES\IMGUI\IMGUI.CPP
E:\AIE_LEARNING\COMPLEX_SYSTEMS\ASSIGNMENT\TEMP\BOOTSTRAP\DEBUG\BOOTSTRAP.PDB
^E:\AIE_LEARNING\COMPLEX_SYSTEMS\ASSIGNMENT\DEPENDENCIES\IMGUI\IMGUI_DRAW.CPP
E:\AIE_LEARNING\COMPLEX_SYSTEMS\ASSIGNMENT\TEMP\BOOTSTRAP\DEBUG\BOOTSTRAP.PDB
^E:\AIE_LEARNING\COMPLEX_SYSTEMS\ASSIGNMENT\BOOTSTRAP\APPLICATION.CPP
E:\AIE_LEARNING\COMPLEX_SYSTEMS\ASSIGNMENT\TEMP\BOOTSTRAP\DEBUG\BOOTSTRAP.PDB
^E:\AIE_LEARNING\COMPLEX_SYSTEMS\ASSIGNMENT\BOOTSTRAP\AUDIO.CPP
E:\AIE_LEARNING\COMPLEX_SYSTEMS\ASSIGNMENT\TEMP\BOOTSTRAP\DEBUG\BOOTSTRAP.PDB
^E:\AIE_LEARNING\COMPLEX_SYSTEMS\ASSIGNMENT\BOOTSTRAP\FONT.CPP
E:\AIE_LEARNING\COMPLEX_SYSTEMS\ASSIGNMENT\TEMP\BOOTSTRAP\DEBUG\BOOTSTRAP.PDB
^E:\AIE_LEARNING\COMPLEX_SYSTEMS\ASSIGNMENT\BOOTSTRAP\GIZMOS.CPP
E:\AIE_LEARNING\COMPLEX_SYSTEMS\ASSIGNMENT\TEMP\BOOTSTRAP\DEBUG\BOOTSTRAP.PDB
^E:\AIE_LEARNING\COMPLEX_SYSTEMS\ASSIGNMENT\BOOTSTRAP\IMGUI_GLFW3.CPP
E:\AIE_LEARNING\COMPLEX_SYSTEMS\ASSIGNMENT\TEMP\BOOTSTRAP\DEBUG\BOOTSTRAP.PDB
^E:\AIE_LEARNING\COMPLEX_SYSTEMS\ASSIGNMENT\BOOTSTRAP\INPUT.CPP
E:\AIE_LEARNING\COMPLEX_SYSTEMS\ASSIGNMENT\TEMP\BOOTSTRAP\DEBUG\BOOTSTRAP.PDB
^E:\AIE_LEARNING\COMPLEX_SYSTEMS\ASSIGNMENT\BOOTSTRAP\RENDERER2D.CPP
E:\AIE_LEARNING\COMPLEX_SYSTEMS\ASSIGNMENT\TEMP\BOOTSTRAP\DEBUG\BOOTSTRAP.PDB
^E:\AIE_LEARNING\COMPLEX_SYSTEMS\ASSIGNMENT\BOOTSTRAP\SOUNDMANAGER.CPP
E:\AIE_LEARNING\COMPLEX_SYSTEMS\ASSIGNMENT\TEMP\BOOTSTRAP\DEBUG\BOOTSTRAP.PDB
^E:\AIE_LEARNING\COMPLEX_SYSTEMS\ASSIGNMENT\BOOTSTRAP\TEXTURE.CPP
E:\AIE_LEARNING\COMPLEX_SYSTEMS\ASSIGNMENT\TEMP\BOOTSTRAP\DEBUG\BOOTSTRAP.PDB
^E:\AIE_LEARNING\COMPLEX_SYSTEMS\ASSIGNMENT\BOOTSTRAP\GL_CORE_4_4.C
E:\AIE_LEARNING\COMPLEX_SYSTEMS\ASSIGNMENT\TEMP\BOOTSTRAP\DEBUG\BOOTSTRAP.PDB
E:\AIE_LEARNING\COMPLEX_SYSTEMS\ASSIGNMENT\TEMP\BOOTSTRAP\DEBUG\BOOTSTRAP.IDB
E:\AIE_LEARNING\COMPLEX_SYSTEMS\ASSIGNMENT\TEMP\BOOTSTRAP\DEBUG\GL_CORE_4_4.OBJ
