^E:\AIE_LEARNING\COMPLEX_SYSTEMS\ASSIGNMENT\SERVERAPPLICATION\SRC\CONSTS.CPP|E:\AIE_LEARNING\COMPLEX_SYSTEMS\ASSIGNMENT\SERVERAPPLICATION\SRC\GAMEINFO.CPP|E:\AIE_LEARNING\COMPLEX_SYSTEMS\ASSIGNMENT\SERVERAPPLICATION\SRC\MAIN.CPP|E:\AIE_LEARNING\COMPLEX_SYSTEMS\ASSIGNMENT\SERVERAPPLICATION\SRC\SERVER.CPP|E:\AIE_LEARNING\COMPLEX_SYSTEMS\ASSIGNMENT\SERVERAPPLICATION\SRC\SERVERCROSSHAIR.CPP|E:\AIE_LEARNING\COMPLEX_SYSTEMS\ASSIGNMENT\SERVERAPPLICATION\SRC\SERVERENDSCENE.CPP|E:\AIE_LEARNING\COMPLEX_SYSTEMS\ASSIGNMENT\SERVERAPPLICATION\SRC\SERVERGAMEPLAYSCENE.CPP|E:\AIE_LEARNING\COMPLEX_SYSTEMS\ASSIGNMENT\SERVERAPPLICATION\SRC\SERVERSTARTSCENE.CPP|E:\AIE_LEARNING\COMPLEX_SYSTEMS\ASSIGNMENT\SERVERAPPLICATION\SRC\SERVERTARGET.CPP
E:\AIE_LEARNING\COMPLEX_SYSTEMS\ASSIGNMENT\TEMP\SERVERAPPLICATION\DEBUG\VC140.PDB
E:\AIE_LEARNING\COMPLEX_SYSTEMS\ASSIGNMENT\TEMP\SERVERAPPLICATION\DEBUG\VC140.IDB
E:\AIE_LEARNING\COMPLEX_SYSTEMS\ASSIGNMENT\TEMP\SERVERAPPLICATION\DEBUG\CONSTS.OBJ
E:\AIE_LEARNING\COMPLEX_SYSTEMS\ASSIGNMENT\TEMP\SERVERAPPLICATION\DEBUG\GAMEINFO.OBJ
E:\AIE_LEARNING\COMPLEX_SYSTEMS\ASSIGNMENT\TEMP\SERVERAPPLICATION\DEBUG\MAIN.OBJ
E:\AIE_LEARNING\COMPLEX_SYSTEMS\ASSIGNMENT\TEMP\SERVERAPPLICATION\DEBUG\SERVER.OBJ
E:\AIE_LEARNING\COMPLEX_SYSTEMS\ASSIGNMENT\TEMP\SERVERAPPLICATION\DEBUG\SERVERCROSSHAIR.OBJ
E:\AIE_LEARNING\COMPLEX_SYSTEMS\ASSIGNMENT\TEMP\SERVERAPPLICATION\DEBUG\SERVERENDSCENE.OBJ
E:\AIE_LEARNING\COMPLEX_SYSTEMS\ASSIGNMENT\TEMP\SERVERAPPLICATION\DEBUG\SERVERGAMEPLAYSCENE.OBJ
E:\AIE_LEARNING\COMPLEX_SYSTEMS\ASSIGNMENT\TEMP\SERVERAPPLICATION\DEBUG\SERVERSTARTSCENE.OBJ
E:\AIE_LEARNING\COMPLEX_SYSTEMS\ASSIGNMENT\TEMP\SERVERAPPLICATION\DEBUG\SERVERTARGET.OBJ
^E:\AIE_LEARNING\COMPLEX_SYSTEMS\ASSIGNMENT\SERVERAPPLICATION\SRC\CONSTS.CPP
E:\AIE_LEARNING\COMPLEX_SYSTEMS\ASSIGNMENT\TEMP\SERVERAPPLICATION\DEBUG\VC140.PDB
^E:\AIE_LEARNING\COMPLEX_SYSTEMS\ASSIGNMENT\SERVERAPPLICATION\SRC\GAMEINFO.CPP
E:\AIE_LEARNING\COMPLEX_SYSTEMS\ASSIGNMENT\TEMP\SERVERAPPLICATION\DEBUG\VC140.PDB
^E:\AIE_LEARNING\COMPLEX_SYSTEMS\ASSIGNMENT\SERVERAPPLICATION\SRC\MAIN.CPP
E:\AIE_LEARNING\COMPLEX_SYSTEMS\ASSIGNMENT\TEMP\SERVERAPPLICATION\DEBUG\VC140.PDB
^E:\AIE_LEARNING\COMPLEX_SYSTEMS\ASSIGNMENT\SERVERAPPLICATION\SRC\SERVER.CPP
E:\AIE_LEARNING\COMPLEX_SYSTEMS\ASSIGNMENT\TEMP\SERVERAPPLICATION\DEBUG\VC140.PDB
^E:\AIE_LEARNING\COMPLEX_SYSTEMS\ASSIGNMENT\SERVERAPPLICATION\SRC\SERVERCROSSHAIR.CPP
E:\AIE_LEARNING\COMPLEX_SYSTEMS\ASSIGNMENT\TEMP\SERVERAPPLICATION\DEBUG\VC140.PDB
^E:\AIE_LEARNING\COMPLEX_SYSTEMS\ASSIGNMENT\SERVERAPPLICATION\SRC\SERVERENDSCENE.CPP
E:\AIE_LEARNING\COMPLEX_SYSTEMS\ASSIGNMENT\TEMP\SERVERAPPLICATION\DEBUG\VC140.PDB
^E:\AIE_LEARNING\COMPLEX_SYSTEMS\ASSIGNMENT\SERVERAPPLICATION\SRC\SERVERGAMEPLAYSCENE.CPP
E:\AIE_LEARNING\COMPLEX_SYSTEMS\ASSIGNMENT\TEMP\SERVERAPPLICATION\DEBUG\VC140.PDB
^E:\AIE_LEARNING\COMPLEX_SYSTEMS\ASSIGNMENT\SERVERAPPLICATION\SRC\SERVERSTARTSCENE.CPP
E:\AIE_LEARNING\COMPLEX_SYSTEMS\ASSIGNMENT\TEMP\SERVERAPPLICATION\DEBUG\VC140.PDB
^E:\AIE_LEARNING\COMPLEX_SYSTEMS\ASSIGNMENT\SERVERAPPLICATION\SRC\SERVERTARGET.CPP
E:\AIE_LEARNING\COMPLEX_SYSTEMS\ASSIGNMENT\TEMP\SERVERAPPLICATION\DEBUG\VC140.PDB
^E:\AIE_LEARNING\COMPLEX_SYSTEMS\ASSIGNMENT\SERVERAPPLICATION\SRC\CONSTS.CPP|E:\AIE_LEARNING\COMPLEX_SYSTEMS\ASSIGNMENT\SERVERAPPLICATION\SRC\SERVER.CPP
E:\AIE_LEARNING\COMPLEX_SYSTEMS\ASSIGNMENT\TEMP\SERVERAPPLICATION\DEBUG\VC140.PDB
E:\AIE_LEARNING\COMPLEX_SYSTEMS\ASSIGNMENT\TEMP\SERVERAPPLICATION\DEBUG\VC140.IDB
E:\AIE_LEARNING\COMPLEX_SYSTEMS\ASSIGNMENT\TEMP\SERVERAPPLICATION\DEBUG\CONSTS.OBJ
E:\AIE_LEARNING\COMPLEX_SYSTEMS\ASSIGNMENT\TEMP\SERVERAPPLICATION\DEBUG\SERVER.OBJ
